{
    "code": 200,
    "message": "成功",
    "data": {
        "trademarkList": [
            {
                "tmId": 1,
                "tmName": "苹果 Apple"
            },
            {
                "tmId": 2,
                "tmName": "华为 HUAWEI"
            },
            {
                "tmId": 3,
                "tmName": "荣耀 HONOR"
            }
        ],
        "attrsList": [
            {
                "attrId": 1,
                "attrValueList": [
                    "移动 4G",
                    "电信 4G",
                    "联通 4G",
                    "移动 5G",
                    "电信 5G",
                    "联通 5G",
                    "全网通 4G",
                    "全网通 5G"
                ],
                "attrName": "网络制式"
            },
            {
                "attrId": 2,
                "attrValueList": [
                    "4.0-4.9英寸",
                    "5.2-5.9英寸",
                    "6.0-6.7英寸",
                    "6.7英寸以上"
                ],
                "attrName": "显示屏尺寸"
            },
            {
                "attrId": 3,
                "attrValueList": [
                    "0-500元",
                    "500-1000元",
                    "500-1000元",
                    "1000-1500元",
                    "1500-2000元",
                    "2000-3000元",
                    "3000元以上"
                ],
                "attrName": "价格"
            },
            {
                "attrId": 4,
                "attrValueList": [
                    "GPS",
                    "NFC",
                    "重力感应",
                    "红外感应",
                    "1亿像素",
                    "双卡双待",
                    "Type-C"
                ],
                "attrName": "附加功能"
            }
        ],
        "goodsList": [
            {
                "id": "002",
                "defaultImg": "https://img.alicdn.com/imgextra/i2/2838892713/O1CN0123wzES1VubEDfjimS_!!2838892713.jpg_430x430q90.jpg",
                "title": "HUAWEI MATE40 PRO (5G)",
                "price": 6099,
                "createTime": null,
                "tmId": null,
                "tmName": null,
                "category1Id": null,
                "category1Name": null,
                "category2Id": null,
                "category2Name": null,
                "category3Id": null,
                "category3Name": null,
                "hotScore": 0,
                "attrs": null
            }
        ],
        "total": 8,
        "pageSize": 2,
        "pageNo": 1,
        "totalPages": 4
    },
    "ok": true
}